D:\dot\diploma\ar-dogadjaji\dist\out-tsc\src\app\components\header\header.component.js
D:\dot\diploma\ar-dogadjaji\dist\out-tsc\src\app\components\header\header.component.js.map
D:\dot\diploma\ar-dogadjaji\dist\out-tsc\src\app\components\izleti\izleti.component.js
D:\dot\diploma\ar-dogadjaji\dist\out-tsc\src\app\components\izleti\izleti.component.js.map
D:\dot\diploma\ar-dogadjaji\dist\out-tsc\src\app\components\izlozbe\izlozbe.component.js
D:\dot\diploma\ar-dogadjaji\dist\out-tsc\src\app\components\izlozbe\izlozbe.component.js.map
D:\dot\diploma\ar-dogadjaji\dist\out-tsc\src\app\components\klub-citalaca\klub-citalaca.component.js
D:\dot\diploma\ar-dogadjaji\dist\out-tsc\src\app\components\klub-citalaca\klub-citalaca.component.js.map
D:\dot\diploma\ar-dogadjaji\dist\out-tsc\src\app\components\night-life\night-life.component.js
D:\dot\diploma\ar-dogadjaji\dist\out-tsc\src\app\components\night-life\night-life.component.js.map
D:\dot\diploma\ar-dogadjaji\dist\out-tsc\src\app\components\pozoriste\pozoriste.component.js
D:\dot\diploma\ar-dogadjaji\dist\out-tsc\src\app\components\pozoriste\pozoriste.component.js.map
D:\dot\diploma\ar-dogadjaji\dist\out-tsc\src\app\components\bioskop\bioskop.component.js
D:\dot\diploma\ar-dogadjaji\dist\out-tsc\src\app\components\bioskop\bioskop.component.js.map
D:\dot\diploma\ar-dogadjaji\dist\out-tsc\src\app\components\footer\footer.component.js
D:\dot\diploma\ar-dogadjaji\dist\out-tsc\src\app\components\footer\footer.component.js.map
D:\dot\diploma\ar-dogadjaji\dist\out-tsc\src\app\pages\registracija\korisnici.service.js
D:\dot\diploma\ar-dogadjaji\dist\out-tsc\src\app\pages\registracija\korisnici.service.js.map
D:\dot\diploma\ar-dogadjaji\dist\out-tsc\src\app\components\bioskop\filmovi.component.js
D:\dot\diploma\ar-dogadjaji\dist\out-tsc\src\app\components\bioskop\filmovi.component.js.map
D:\dot\diploma\ar-dogadjaji\dist\out-tsc\src\app\components\components.module.js
D:\dot\diploma\ar-dogadjaji\dist\out-tsc\src\app\components\components.module.js.map
D:\dot\diploma\ar-dogadjaji\dist\out-tsc\src\app\pages\unos-dogadjaja\unos-dogadjaja.component.js
D:\dot\diploma\ar-dogadjaji\dist\out-tsc\src\app\pages\unos-dogadjaja\unos-dogadjaja.component.js.map
D:\dot\diploma\ar-dogadjaji\dist\out-tsc\src\app\pages\dogadjaj\dogadjaj.component.js
D:\dot\diploma\ar-dogadjaji\dist\out-tsc\src\app\pages\dogadjaj\dogadjaj.component.js.map
D:\dot\diploma\ar-dogadjaji\dist\out-tsc\src\app\pages\home\home.component.js
D:\dot\diploma\ar-dogadjaji\dist\out-tsc\src\app\pages\home\home.component.js.map
D:\dot\diploma\ar-dogadjaji\dist\out-tsc\src\app\pages\login\login.component.js
D:\dot\diploma\ar-dogadjaji\dist\out-tsc\src\app\pages\login\login.component.js.map
D:\dot\diploma\ar-dogadjaji\dist\out-tsc\src\app\pages\pretraga-dogadjaja\pretraga-dogadjaja.component.js
D:\dot\diploma\ar-dogadjaji\dist\out-tsc\src\app\pages\pretraga-dogadjaja\pretraga-dogadjaja.component.js.map
D:\dot\diploma\ar-dogadjaji\dist\out-tsc\src\app\pages\registracija\registracija.component.js
D:\dot\diploma\ar-dogadjaji\dist\out-tsc\src\app\pages\registracija\registracija.component.js.map
D:\dot\diploma\ar-dogadjaji\dist\out-tsc\src\app\pages\sadrzaj-dogadjaja\sadrzaj-dogadjaja.component.js
D:\dot\diploma\ar-dogadjaji\dist\out-tsc\src\app\pages\sadrzaj-dogadjaja\sadrzaj-dogadjaja.component.js.map
D:\dot\diploma\ar-dogadjaji\dist\out-tsc\src\app\pages\login\logout\logout.component.js
D:\dot\diploma\ar-dogadjaji\dist\out-tsc\src\app\pages\login\logout\logout.component.js.map
D:\dot\diploma\ar-dogadjaji\dist\out-tsc\src\app\pages\pages.module.js
D:\dot\diploma\ar-dogadjaji\dist\out-tsc\src\app\pages\pages.module.js.map
D:\dot\diploma\ar-dogadjaji\dist\out-tsc\src\app\app-routing.module.js
D:\dot\diploma\ar-dogadjaji\dist\out-tsc\src\app\app-routing.module.js.map
D:\dot\diploma\ar-dogadjaji\dist\out-tsc\src\app\app.component.js
D:\dot\diploma\ar-dogadjaji\dist\out-tsc\src\app\app.component.js.map
D:\dot\diploma\ar-dogadjaji\dist\out-tsc\src\app\app.module.js
D:\dot\diploma\ar-dogadjaji\dist\out-tsc\src\app\app.module.js.map
D:\dot\diploma\ar-dogadjaji\dist\out-tsc\src\environments\environment.js
D:\dot\diploma\ar-dogadjaji\dist\out-tsc\src\environments\environment.js.map
D:\dot\diploma\ar-dogadjaji\dist\out-tsc\src\main.js
D:\dot\diploma\ar-dogadjaji\dist\out-tsc\src\main.js.map
D:\dot\diploma\ar-dogadjaji\dist\out-tsc\src\polyfills.js
D:\dot\diploma\ar-dogadjaji\dist\out-tsc\src\polyfills.js.map
D:\dot\diploma\ar-dogadjaji\dist\out-tsc\src\test.js
D:\dot\diploma\ar-dogadjaji\dist\out-tsc\src\test.js.map
D:\dot\diploma\ar-dogadjaji\dist\out-tsc\e2e\src\app.po.js
D:\dot\diploma\ar-dogadjaji\dist\out-tsc\e2e\src\app.po.js.map
D:\dot\diploma\ar-dogadjaji\dist\out-tsc\e2e\src\app.e2e-spec.js
D:\dot\diploma\ar-dogadjaji\dist\out-tsc\e2e\src\app.e2e-spec.js.map
D:\dot\diploma\ar-dogadjaji\dist\out-tsc\src\app\auth-guard.service.js
D:\dot\diploma\ar-dogadjaji\dist\out-tsc\src\app\auth-guard.service.js.map
D:\dot\diploma\ar-dogadjaji\dist\out-tsc\src\app\auth.service.js
D:\dot\diploma\ar-dogadjaji\dist\out-tsc\src\app\auth.service.js.map
D:\dot\diploma\ar-dogadjaji\dist\out-tsc\src\environments\environment.prod.js
D:\dot\diploma\ar-dogadjaji\dist\out-tsc\src\environments\environment.prod.js.map
